{
  "baseUrl": "/",
  "paths": {
    "@assets/*" : [".src/assets/*"],
    "@comp/*" : [".src/components/*"],
    "@context/*" : [".src/context/*"],
    "@helpers/*" : [".src/helpers/*"],
    "@hooks/*" : [".src/hooks/*"],
    "@pages/*" : ["src/pages/*"]
  }
}